Abierta una imagen de n:512, m:512
Para 4196488 hilos el t_ejecucion es 6.749645
Abierta una imagen de n:512, m:512
Para 4196488 hilos el t_ejecucion es 3.375722
Abierta una imagen de n:512, m:512
Para 4196488 hilos el t_ejecucion es 1.720341
Abierta una imagen de n:512, m:512
Para 4196488 hilos el t_ejecucion es 0.547468
Abierta una imagen de n:512, m:512
Para 4196488 hilos el t_ejecucion es 0.342287
